digraph snakemake_dag {
    graph[bgcolor=white, margin=0];
    node[shape=box, style=rounded, fontname=sans,                 fontsize=10, penwidth=2];
    edge[penwidth=2, color=grey];
	0[label = "all", color = "0.00 0.6 0.85", style="rounded"];
	1[label = "fastqc\nsample: SRR2131198_R1", color = "0.60 0.6 0.85", style="rounded,dashed"];
	2[label = "fastqc\nsample: SRR2131199_R1", color = "0.60 0.6 0.85", style="rounded,dashed"];
	3[label = "fastqc\nsample: SRR2131198_R2", color = "0.60 0.6 0.85", style="rounded,dashed"];
	4[label = "fastqc\nsample: SRR2131199_R2", color = "0.60 0.6 0.85", style="rounded,dashed"];
	5[label = "annotate_variants", color = "0.64 0.6 0.85", style="rounded"];
	6[label = "calculate_average_coverage", color = "0.45 0.6 0.85", style="rounded,dashed"];
	7[label = "calculate_average_coverage", color = "0.45 0.6 0.85", style="rounded,dashed"];
	8[label = "filtered_removed_VCF", color = "0.14 0.6 0.85", style="rounded"];
	9[label = "create_snpEff_db", color = "0.29 0.6 0.85", style="rounded,dashed"];
	10[label = "mark_duplicates", color = "0.55 0.6 0.85", style="rounded,dashed"];
	11[label = "index_marked_bam", color = "0.21 0.6 0.85", style="rounded,dashed"];
	12[label = "mark_duplicates", color = "0.55 0.6 0.85", style="rounded,dashed"];
	13[label = "index_marked_bam", color = "0.21 0.6 0.85", style="rounded,dashed"];
	14[label = "merged_filtered_VCF", color = "0.07 0.6 0.85", style="rounded"];
	15[label = "bgzip_reference", color = "0.33 0.6 0.85", style="rounded,dashed"];
	16[label = "sort_sam_gatk", color = "0.50 0.6 0.85", style="rounded,dashed"];
	17[label = "sort_sam_gatk", color = "0.50 0.6 0.85", style="rounded,dashed"];
	18[label = "hard_filtering_snps", color = "0.31 0.6 0.85", style="rounded"];
	19[label = "hard_filtering_indels", color = "0.48 0.6 0.85", style="rounded"];
	20[label = "mapping\nsample: SRR2131198", color = "0.10 0.6 0.85", style="rounded,dashed"];
	21[label = "mapping\nsample: SRR2131199", color = "0.10 0.6 0.85", style="rounded,dashed"];
	22[label = "split_SNPs", color = "0.17 0.6 0.85", style="rounded"];
	23[label = "split_Indels", color = "0.36 0.6 0.85", style="rounded"];
	24[label = "create_bwa_index", color = "0.62 0.6 0.85", style="rounded,dashed"];
	25[label = "genotypeGVCFs", color = "0.19 0.6 0.85", style="rounded"];
	26[label = "combine_calls", color = "0.52 0.6 0.85", style="rounded"];
	27[label = "gather_intervals", color = "0.43 0.6 0.85", style="rounded"];
	28[label = "gather_intervals", color = "0.43 0.6 0.85", style="rounded"];
	29[label = "haplotypeCaller\ninterval: interval_2", color = "0.12 0.6 0.85", style="rounded,dashed"];
	30[label = "haplotypeCaller\ninterval: interval_1", color = "0.12 0.6 0.85", style="rounded,dashed"];
	31[label = "haplotypeCaller\ninterval: interval_3", color = "0.12 0.6 0.85", style="rounded,dashed"];
	32[label = "haplotypeCaller\ninterval: interval_2", color = "0.12 0.6 0.85", style="rounded,dashed"];
	33[label = "haplotypeCaller\ninterval: interval_1", color = "0.12 0.6 0.85", style="rounded,dashed"];
	34[label = "haplotypeCaller\ninterval: interval_3", color = "0.12 0.6 0.85", style="rounded,dashed"];
	35[label = "create_fai_index", color = "0.26 0.6 0.85", style="rounded,dashed"];
	36[label = "create_GATK_dict", color = "0.57 0.6 0.85", style="rounded,dashed"];
	1 -> 0
	2 -> 0
	3 -> 0
	4 -> 0
	5 -> 0
	6 -> 0
	7 -> 0
	8 -> 5
	9 -> 5
	10 -> 6
	11 -> 6
	12 -> 7
	13 -> 7
	14 -> 8
	15 -> 9
	16 -> 10
	10 -> 11
	17 -> 12
	12 -> 13
	18 -> 14
	19 -> 14
	20 -> 16
	21 -> 17
	22 -> 18
	23 -> 19
	15 -> 20
	24 -> 20
	15 -> 21
	24 -> 21
	25 -> 22
	25 -> 23
	15 -> 24
	26 -> 25
	15 -> 25
	15 -> 26
	27 -> 26
	28 -> 26
	15 -> 27
	29 -> 27
	30 -> 27
	31 -> 27
	15 -> 28
	32 -> 28
	33 -> 28
	34 -> 28
	10 -> 29
	11 -> 29
	15 -> 29
	35 -> 29
	36 -> 29
	10 -> 30
	11 -> 30
	15 -> 30
	35 -> 30
	36 -> 30
	10 -> 31
	11 -> 31
	15 -> 31
	35 -> 31
	36 -> 31
	12 -> 32
	13 -> 32
	15 -> 32
	35 -> 32
	36 -> 32
	12 -> 33
	13 -> 33
	15 -> 33
	35 -> 33
	36 -> 33
	12 -> 34
	13 -> 34
	15 -> 34
	35 -> 34
	36 -> 34
	15 -> 35
	15 -> 36
}            
